[
  {
    "id": "Sony Xperia Z3 Compact (Kitkat)",
    "builds": [
      {
        "name": "nightly userdebug",
        "description": "Nightly userdebug build freshly baked from TaskCluster",
        "url": "https://index.taskcluster.net/v1/task/gecko.v1.mozilla-central.latest.linux.aries.debug/artifacts/public/build/aries.blobfree-dist.zip"
      },
      {
        "name": "nightly eng",
        "description": "Nightly eng build freshly baked from TaskCluster",
        "url": "https://index.taskcluster.net/v1/task/gecko.v1.mozilla-central.latest.linux.aries-eng.opt/artifacts/public/build/aries.blobfree-dist.zip"
      }
    ],
    "adb": {
      "ro.semc.product.model": [ "D5803", "D5833" ],
      "ro.bootloader": "s1",
      "ro.semc.version.sw_revision": "23.0.1.A.5.77"
    },
    "fastboot": {
      "product": [ "D5803", "D5833" ],
      "version-bootloader": [ "1286-7314 S1_Boot_MSM8974AC_LA3.0_60", "1286-7314 S1_Boot_MSM8974AC_LA3.0_L_15" ]
    }
  },
  {
    "id": "Mozilla Flame (Kitkat)",
    "builds": [
      {
        "name": "nightly userdebug",
        "description": "Nightly userdebug build freshly baked from TaskCluster",
        "url": "https://index.taskcluster.net/v1/task/gecko.v1.mozilla-central.latest.linux.flame-kk.debug/artifacts/public/build/flame.blobfree-dist.zip"
      },
      {
        "name": "nightly eng",
        "description": "Nightly eng build freshly baked from TaskCluster",
        "url": "https://index.taskcluster.net/v1/task/gecko.v1.mozilla-central.latest.linux.flame-kk-eng.opt/artifacts/public/build/flame.blobfree-dist.zip"
      }
    ],
    "adb": {
      "ro.product.device": [ "flame" ],
      "ro.bootloader": "L1TC000118D0",
      "ro.build.id": "KOT49H"
    },
    "fastboot": {
      "product": [ "MSM8610" ],
      "version": [ "0.5" ]
    }
  },
  {
    "id": "Nexus 4 (Kitkat)",
    "builds": [
      {
        "name": "nightly user",
        "description": "Nightly user build freshly baked from TaskCluster",
        "url": "https://index.taskcluster.net/v1/task/gecko.v1.mozilla-central.latest.linux.nexus-4-kk-user.opt/artifacts/public/build/mako.blobfree-dist.zip"
      },
      {
        "name": "nightly eng",
        "description": "Nightly eng build freshly baked from TaskCluster",
        "url": "https://index.taskcluster.net/v1/task/gecko.v1.mozilla-central.latest.linux.nexus-4-kk-eng.opt/artifacts/public/build/mako.blobfree-dist.zip"
      }
    ],
    "adb": {
      "ro.product.device": [ "mako" ],
      "ro.bootloader": ["MAKOZ20i", "MAKOZ30d"],
      "ro.build.id": ["KOT49H", "KTU48L", "KTU84P"]
    },
    "fastboot": {
      "product": [ "mako" ]
    }
  },
  {
    "id": "Nexus 5 (Lollipop)",
    "builds": [
      {
        "name": "nightly user",
        "description": "Nightly user build freshly baked from TaskCluster",
        "url": "https://index.taskcluster.net/v1/task/gecko.v1.mozilla-central.latest.linux.nexus-5-user.opt/artifacts/public/build/hammerhead.blobfree-dist.zip"
      },
      {
        "name": "nightly eng",
        "description": "Nightly eng build freshly baked from TaskCluster",
        "url": "https://index.taskcluster.net/v1/task/gecko.v1.mozilla-central.latest.linux.nexus-5-l-eng.opt/artifacts/public/build/hammerhead.blobfree-dist.zip"
      }
    ],
    "adb": {
      "ro.product.device": [ "hammerhead" ],
      "ro.bootloader": ["HHZ11k", "HHZ12f", "HHZ12h"],
      "ro.build.id": ["LMY48M", "LMY48I", "LMY48B", "LMY47I", "LMY47D", "LRX22C", "LRX21O", "LVY48I"]
    },
    "fastboot": {
      "product": [ "hammerhead" ]
    }
  }
]
